[
    {
       "id": "0",
       "name": "Машинка ZIPP Toys CAM багги с камерой ",
       "price": "9$",
       "color": "white",
       "articul": "502975",
       "img": "https://content2.rozetka.com.ua/goods/images/big/219683413.jpg",
       "status":"not elected"
    },
    {
       "id": "1",
       "name": "развивающая Tigres Пирамидка маленькая ",
       "price": "93$",
       "color": "white",
       "articul": "502960",
       "img": "https://content.rozetka.com.ua/goods/images/big/10688639.jpg",
       "status":"not elected"
    },
    {
       "id": "2",
       "name": "Шпионские рации Spy X",
       "price": "39$",
       "color": "white",
       "articul": "50345",
       "img": "https://content2.rozetka.com.ua/goods/images/big/61218035.jpg",
       "status":"not elected"
    },
    {
       "id": "3",
       "name": "Металлический конструктор Technok Мрія ",
       "price": "39$",
       "color": "white",
       "articul": "57345",
       "img": "https://content1.rozetka.com.ua/goods/images/big/302940708.jpg",
       "status":"not elected"
    },
    {
       "id": "4",
       "name": "Говорящий хомяк Supretto коричневый",
       "price": "69$",
       "color": "white",
       "articul": "5845",
       "img": "https://content2.rozetka.com.ua/goods/images/big/143183925.jpg",
       "status":"not elected"
    },
    {
       "id": "5",
       "name": "Мягкая игрушка Tigres Зайчик Star ",
       "price": "49$",
       "color": "white",
       "articul": "5745",
       "img": "https://content2.rozetka.com.ua/goods/images/big/148931556.jpg",
       "status":"not elected"
    },
    {
       "id": "6",
       "name": "Машинка-трансформер Screechers Wild",
       "price": "49$",
       "color": "white",
       "articul": "50645",
       "img": "https://content2.rozetka.com.ua/goods/images/big/295070336.jpg",
       "status":"not elected"
    },
    {
       "id": "7",
       "name": "Набор садовника Ecoiffier Гарден ",
       "price": "49$",
       "color": "white",
       "articul": "5045",
       "img": "https://content2.rozetka.com.ua/goods/images/big/22485212.jpg",
       "status":"not elected"
    },
    {
       "id": "8",
       "name": "Карта-пазл Uteria Историческая карта Украины",
       "price": "649$",
       "color": "white",
       "articul": "445",
       "img": "https://content1.rozetka.com.ua/goods/images/big/11520128.jpg",
       "status":"not elected"
    },
    {
       "id": "9",
       "name": "Игрушечное оружие Qunxing Автомат ",
       "price": "62$",
       "color": "white",
       "articul": "5075",
       "img": "https://content.rozetka.com.ua/goods/images/big/93486107.jpg",
       "status":"not elected"
    }
 ]